module gitlab.com/danilpan/logger

go 1.18

require (
	github.com/go-telegram-bot-api/telegram-bot-api v4.6.4+incompatible
	github.com/google/uuid v1.3.0
	github.com/labstack/echo/v4 v4.7.2
	go.uber.org/zap v1.21.0
)

require (
	github.com/labstack/gommon v0.3.1 // indirect
	github.com/mattn/go-colorable v0.1.11 // indirect
	github.com/mattn/go-isatty v0.0.14 // indirect
	github.com/technoweenie/multipartstreamer v1.0.1 // indirect
	github.com/valyala/bytebufferpool v1.0.0 // indirect
	github.com/valyala/fasttemplate v1.2.1 // indirect
	go.uber.org/atomic v1.7.0 // indirect
	go.uber.org/multierr v1.6.0 // indirect
	golang.org/x/crypto v0.0.0-20210817164053-32db794688a5 // indirect
	golang.org/x/net v0.0.0-20211015210444-4f30a5c0130f // indirect
	golang.org/x/sys v0.0.0-20211103235746-7861aae1554b // indirect
	golang.org/x/text v0.3.7 // indirect
)
